[
  {
    "objectID": "index.html",
    "href": "index.html",
    "title": "LAB4",
    "section": "",
    "text": "Подключение пакетов\n\n    library(arrow)\n\nWarning: пакет 'arrow' был собран под R версии 4.2.3\n\n\nThe tzdb package is not installed. Timezones will not be available to Arrow compute functions.\n\n\n\nПрисоединяю пакет: 'arrow'\n\n\nСледующий объект скрыт от 'package:utils':\n\n    timestamp\n\n    library(dplyr)\n\nWarning: пакет 'dplyr' был собран под R версии 4.2.3\n\n\n\nПрисоединяю пакет: 'dplyr'\n\n\nСледующие объекты скрыты от 'package:stats':\n\n    filter, lag\n\n\nСледующие объекты скрыты от 'package:base':\n\n    intersect, setdiff, setequal, union\n\n    library(stringr)\n    library(ggplot2)\n\nWarning: пакет 'ggplot2' был собран под R версии 4.2.3\n\n    library(stringr)\n    library(lubridate)\n\nWarning: пакет 'lubridate' был собран под R версии 4.2.3\n\n\n\nПрисоединяю пакет: 'lubridate'\n\n\nСледующий объект скрыт от 'package:arrow':\n\n    duration\n\n\nСледующие объекты скрыты от 'package:base':\n\n    date, intersect, setdiff, union\n\n\n\n\nИмпорт датасета\n\n    dataset &lt;- arrow::read_csv_arrow(\"..\\\\traffic_security.csv\",schema = schema(timestamp=int64(),src=utf8(),dst=utf8(),port=uint32(),bytes=uint32()))\n\n\n\nЗадание 1: Найдите утечку данных из Вашей сети\nВажнейшие документы с результатами нашей исследовательской деятельности в области создания вакцин скачиваются в виде больших заархивированных дампов. Один из хостов в нашей сети используется для пересылки этой информации – он пересылает гораздо больше информации на внешние ресурсы в Интернете, чем остальные компьютеры нашей сети. Определите его IP-адрес.\n\nОпределение IP-адреса, который пересылает больше информации на внешние ресурсы.\n\nfilter(dataset,str_detect(src,\"^((12|13|14)\\\\.)\"),\n             str_detect(dst,\"^((12|13|14)\\\\.)\",negate=TRUE)) %&gt;% \n      select(src,bytes) %&gt;%\n      group_by(src)%&gt;% \n      summarise(bytes=sum(bytes))%&gt;%\n      slice_max(bytes)%&gt;%\n      select(src)\n\n# A tibble: 1 × 1\n  src         \n  &lt;chr&gt;       \n1 13.37.84.125\n\n\n\n\nОтвет: 13.37.84.125\n\n\n\nЗадание 2: Надите утечку данных 2\nДругой атакующий установил автоматическую задачу в системном планировщике cron для экспорта содержимого внутренней wiki системы. Эта система генерирует большое количество траффика в нерабочие часы, больше чем остальные хосты. Определите IP этой системы. Известно, что ее IP адрес отличается от нарушителя из предыдущей задачи.\n\nГрафики распределения отправленных пакетов в каждый час и количества данных за каждый час\n\ndataset %&gt;%\n      select(timestamp, src, dst, bytes) %&gt;%\n      mutate(external_traffic = (str_detect(src, \"^((12|13|14)\\\\.)\") & !str_detect(dst, \"^((12|13|14)\\\\.)\")),hour = hour(as_datetime(timestamp/1000))) %&gt;%\n      filter(external_traffic == TRUE, hour &gt;= 0 & hour &lt;= 24) %&gt;%\n      group_by(hour) %&gt;%\n      summarise(packets = n()) %&gt;%\n      collect() %&gt;%\n      \n      ggplot(., aes(x = hour, y = packets),) +\n             geom_col(fill = \"violetred\", color = \"black\") + labs(title = \"Количество пакетов за каждый час\", x = \"Часы\", y = \"Пакеты\")+ theme_bw()\n\n\n\n\n\n    dataset %&gt;%\n      select(timestamp, src, dst, bytes) %&gt;%\n      mutate(external_traffic = (str_detect(src, \"^((12|13|14)\\\\.)\") & !str_detect(dst, \"^((12|13|14)\\\\.)\")),hour = hour(as_datetime(timestamp/1000))) %&gt;%\n      filter(external_traffic == TRUE, hour &gt;= 0 & hour &lt;= 24) %&gt;%\n    group_by(hour) %&gt;%\n    summarise(bytes = sum(bytes)) %&gt;%\n      collect() %&gt;%\n      \n    ggplot(., aes(x = hour, y = bytes),) +\n             geom_col(fill = \"violetred\", color = \"black\") + labs(title = \"Количество данных за каждый час\", x = \"Часы\", y = \"Данные\")+ theme_bw()\n\n\n\n\n\n\nПостроив графики распределения количества пакетов и данных за каждый час, видно, что:\n  С 0:00 по 15:00 активность наименьшая по сравнению  с 16:00 по 24:00\n  Следовательно нерабочее время - 0-15.\n\n\nОтвет: 12.55.77.96\n\n\n\nЗадание 3: Найдите утечку данных 3\nЕще один нарушитель собирает содержимое электронной почты и отправляет в Интернет используя порт, который обычно используется для другого типа трафика. Атакующий пересылает большое количество информации используя этот порт, которое нехарактерно для других хостов, использующих этот номер порта. Определите IP этой системы. Известно, что ее IP адрес отличается от нарушителей из предыдущих задач.\n\n      general_table&lt;-filter(dataset, src != \"13.37.84.125\", src != \"12.55.77.96\", str_detect(src,\"^((12|13|14)\\\\.)\") & !str_detect(dst,\"^((12|13|14)\\\\.)\")) %&gt;%\n  select(src, bytes, port)\ntable_sorted &lt;-general_table[order(general_table$port, decreasing = TRUE), ]%&gt;%\n  group_by(src, port)\n\n\nСуммируем по каждому ip и port количество отправленных bytes\n\n      table_sum&lt;-table_sorted%&gt;%summarize(port_sum = sum(bytes))%&gt;%group_by(port)\n\n`summarise()` has grouped output by 'src'. You can override using the `.groups`\nargument.\n\n\n\n\nПолучаем среднее значение байт по каждому порту и мёржим с отсортированной таблицей\n\n      table_mean&lt;-table_sum%&gt;%summarize(port_mean = mean(port_sum))\n      \n      table_merge&lt;-merge(table_sorted, table_mean, by = \"port\")\n\n\n\nНаходим минимальную разницу между количеством байт и средним значением байт по каждому порту. Чем меньше значение, тем больше данных ip отправил.\n\n    res_ip&lt;-filter(table_merge,str_detect(src,\"13.37.84.125\",negate=TRUE)&str_detect(src,\"12.55.77.96\",negate=TRUE))\n    res_ip$difference &lt;- res_ip$bytes - res_ip$port_mean\n    min_diff_index &lt;- which.min(res_ip$difference)\n\n    min_diff_row &lt;- res_ip[min_diff_index,]\n      min_diff_row%&gt;%head(1)%&gt;%\n      select(src)\n\n                 src\n26877872 14.37.50.41\n\n\n\n\nОтвет: 15.94.59.123"
  },
  {
    "objectID": "index.html#важнейшие-документы-с-результатами-нашей-исследовательской-деятельности-в-области-создания-вакцин-скачиваются-в-виде-больших-заархивированных-дампов.-один-из-хостов-в-нашей-сети-используется-для-пересылки-этой-информации-он-пересылает-гораздо-больше-информации-на-внешние-ресурсы-в-интернете-чем-остальные-компьютеры-нашей-сети.-определите-его-ip-адрес.",
    "href": "index.html#важнейшие-документы-с-результатами-нашей-исследовательской-деятельности-в-области-создания-вакцин-скачиваются-в-виде-больших-заархивированных-дампов.-один-из-хостов-в-нашей-сети-используется-для-пересылки-этой-информации-он-пересылает-гораздо-больше-информации-на-внешние-ресурсы-в-интернете-чем-остальные-компьютеры-нашей-сети.-определите-его-ip-адрес.",
    "title": "website",
    "section": "Важнейшие документы с результатами нашей исследовательской деятельности в области создания вакцин скачиваются в виде больших заархивированных дампов. Один из хостов в нашей сети используется для пересылки этой информации – он пересылает гораздо больше информации на внешние ресурсы в Интернете, чем остальные компьютеры нашей сети. Определите его IP-адрес.",
    "text": "Важнейшие документы с результатами нашей исследовательской деятельности в области создания вакцин скачиваются в виде больших заархивированных дампов. Один из хостов в нашей сети используется для пересылки этой информации – он пересылает гораздо больше информации на внешние ресурсы в Интернете, чем остальные компьютеры нашей сети. Определите его IP-адрес.\n\nОпределение IP-адреса, который пересылает больше информации на внешние ресурсы.\n\nfilter(dataset,str_detect(src,\"^((12|13|14)\\\\.)\"),\n             str_detect(dst,\"^((12|13|14)\\\\.)\",negate=TRUE)) %&gt;% \n      select(src,bytes) %&gt;%\n      group_by(src)%&gt;% \n      summarise(bytes=sum(bytes))%&gt;%\n      slice_max(bytes)%&gt;%\n      select(src)\n\n# A tibble: 1 × 1\n  src         \n  &lt;chr&gt;       \n1 13.37.84.125\n\n\n\n\nОтвет: 13.37.84.125"
  },
  {
    "objectID": "index.html#другой-атакующий-установил-автоматическую-задачу-в-системном-планировщике-cron-для-экспорта-содержимого-внутренней-wiki-системы.-эта-система-генерирует-большое-количество-траффика-в-нерабочие-часы-больше-чем-остальные-хосты.-определите-ip-этой-системы.-известно-что-ее-ip-адрес-отличается-от-нарушителя-из-предыдущей-задачи.",
    "href": "index.html#другой-атакующий-установил-автоматическую-задачу-в-системном-планировщике-cron-для-экспорта-содержимого-внутренней-wiki-системы.-эта-система-генерирует-большое-количество-траффика-в-нерабочие-часы-больше-чем-остальные-хосты.-определите-ip-этой-системы.-известно-что-ее-ip-адрес-отличается-от-нарушителя-из-предыдущей-задачи.",
    "title": "website",
    "section": "Другой атакующий установил автоматическую задачу в системном планировщике cron для экспорта содержимого внутренней wiki системы. Эта система генерирует большое количество траффика в нерабочие часы, больше чем остальные хосты. Определите IP этой системы. Известно, что ее IP адрес отличается от нарушителя из предыдущей задачи.",
    "text": "Другой атакующий установил автоматическую задачу в системном планировщике cron для экспорта содержимого внутренней wiki системы. Эта система генерирует большое количество траффика в нерабочие часы, больше чем остальные хосты. Определите IP этой системы. Известно, что ее IP адрес отличается от нарушителя из предыдущей задачи.\n\nГрафики распределения отправленных пакетов в каждый час и количества данных за каждый час\n\ndataset %&gt;%\n      select(timestamp, src, dst, bytes) %&gt;%\n      mutate(external_traffic = (str_detect(src, \"^((12|13|14)\\\\.)\") & !str_detect(dst, \"^((12|13|14)\\\\.)\")),hour = hour(as_datetime(timestamp/1000))) %&gt;%\n      filter(external_traffic == TRUE, hour &gt;= 0 & hour &lt;= 24) %&gt;%\n      group_by(hour) %&gt;%\n      summarise(packets = n()) %&gt;%\n      collect() %&gt;%\n      \n      ggplot(., aes(x = hour, y = packets),) +\n             geom_col(fill = \"violetred\", color = \"black\") + labs(title = \"Количество пакетов за каждый час\", x = \"Часы\", y = \"Пакеты\")+ theme_bw()\n\n\n\n\n\n    dataset %&gt;%\n      select(timestamp, src, dst, bytes) %&gt;%\n      mutate(external_traffic = (str_detect(src, \"^((12|13|14)\\\\.)\") & !str_detect(dst, \"^((12|13|14)\\\\.)\")),hour = hour(as_datetime(timestamp/1000))) %&gt;%\n      filter(external_traffic == TRUE, hour &gt;= 0 & hour &lt;= 24) %&gt;%\n    group_by(hour) %&gt;%\n    summarise(bytes = sum(bytes)) %&gt;%\n      collect() %&gt;%\n      \n    ggplot(., aes(x = hour, y = bytes),) +\n             geom_col(fill = \"violetred\", color = \"black\") + labs(title = \"Количество данных за каждый час\", x = \"Часы\", y = \"Данные\")+ theme_bw()\n\n\n\n\n\n\nПостроив графики распределения количества пакетов и данных за каждый час, видно, что:\n  С 0:00 по 15:00 активность наименьшая по сравнению  с 16:00 по 24:00\n\n\nСледовательно нерабочее время - 0-15.\n\n\nОтвет: 12.55.77.96"
  },
  {
    "objectID": "about.html",
    "href": "about.html",
    "title": "About",
    "section": "",
    "text": "About this site\n\n1 + 1\n\n[1] 2"
  }
]